#t	P
"hour"	"KPa"
0	68.9
2.01667	590.807
4.03889	1559.09
6.05556	2269.58
8.07778	2784.27
10.0944	3167.28
12.1167	3463.58
14.1333	3698.78
16.1556	3892.19
18.1722	4054.82
20.1944	4195.83
22.2111	4320.14
24.2333	4432.4
26.25	4534.76
28.2722	4629.73
30.2889	4718.17
32.3111	4801.57
34.3278	4880.19
36.35	4955.01
38.3667	5026.01
40.3889	5093.91
42.4056	5158.59
44.4278	5220.59
46.4444	5279.76
48.4667	5336.57
50.4833	5390.83
52.5056	5442.96
54.5222	5492.78
56.5444	5540.66
58.5611	5586.43
60.5833	5630.42
62.6	5672.49
64.6222	5712.93
66.6389	5751.59
68.6611	5788.76
70.6778	5824.3
72.7	5858.47
74.7167	5891.15
76.7389	5922.56
78.7556	5952.6
80.7778	5981.48
82.7944	6009.09
84.8167	6035.64
86.8333	6061.03
88.8556	6085.44
90.8722	6108.78
92.8944	6131.22
94.9111	6152.68
96.9333	6173.3
98.95	6193.03
100.972	6212
102.989	6230.13
105.011	6247.57
107.028	6264.24
109.05	6280.27
111.067	6295.6
113.089	6310.33
115.106	6324.42
117.128	6337.97
119.144	6350.93
121.167	6363.38
123.183	6375.29
125.206	6386.74
127.222	6397.69
129.244	6408.22
131.261	6418.28
133.283	6427.96
135.3	6437.22
137.322	6446.11
139.339	6454.62
141.361	6462.8
143.378	6470.62
145.4	6478.14
147.417	6485.33
149.439	6492.25
151.456	6498.86
153.478	6505.21
155.494	6511.29
157.517	6517.13
159.533	6522.72
161.556	6528.09
163.572	6533.23
165.594	6538.17
167.611	6542.89
169.633	6547.43
171.65	6551.77
173.672	6555.94
175.689	6559.93
177.711	6563.77
179.728	6567.44
181.75	6570.97
183.767	6574.34
185.789	6577.59
187.806	6580.69
189.828	6583.67
191.844	6586.52
193.867	6589.26
195.883	6591.88
197.906	6594.4
199.922	6596.81
200	6596.9
